%YAML 1.1
%TAG !u! tag:unity3d.com,2011:
--- !u!13 &1
InputManager:
  m_ObjectHideFlags: 0
  serializedVersion: 2
  m_Axes:
  - serializedVersion: 3
    m_Name: Horizontal
    descriptiveName: 
    descriptiveNegativeName: 
    negativeButton: left
    positiveButton: right
    altNegativeButton: 
    altPositiveButton: 
    gravity: 3
    dead: 0.001
    sensitivity: 3
    snap: 1
    invert: 0
    type: 0
    axis: 0
    joyNum: 0
  - serializedVersion: 3
    m_Name: Vertical
    descriptiveName: 
    descriptiveNegativeName: 
    negativeButton: down
    positiveButton: up
    altNegativeButton: 
    altPositiveButton: 
    gravity: 3
    dead: 0.001
    sensitivity: 3
    snap: 1
    invert: 0
    type: 0
    axis: 0
    joyNum: 0
  - serializedVersion: 3
    m_Name: Jump
    descriptiveName: 
    descriptiveNegativeName: 
    negativeButton: 
    positiveButton: z
    altNegativeButton: 
    altPositiveButton: 
    gravity: 1000
    dead: 0.001
    sensitivity: 1000
    snap: 0
    invert: 0
    type: 0
    axis: 0
    joyNum: 0
  - serializedVersion: 3
    m_Name: Submit
    descriptiveName: 
    descriptiveNegativeName: 
    negativeButton: 
    positiveButton: enter
    altNegativeButton: 
    altPositiveButton: space
    gravity: 1000
    dead: 0.001
    sensitivity: 1000
    snap: 0
    invert: 0
    type: 0
    axis: 0
    joyNum: 0
  - serializedVersion: 3
    m_Name: Cancel
    descriptiveName: 
    descriptiveNegativeName: 
    negativeButton: 
    positiveButton: escape
    altNegativeButton: 
    altPositiveButton: joystick button 1
    gravity: 1000
    dead: 0.001
    sensitivity: 1000
    snap: 0
    invert: 0
    type: 0
    axis: 0
    joyNum: 0
  - serializedVersion: 3
    m_Name: Interact
    descriptiveName: 
    descriptiveNegativeName: 
    negativeButton: 
    positiveButton: w
    altNegativeButton: 
    altPositiveButton: up
    gravity: 1000
    dead: 0.001
    sensitivity: 1000
    snap: 0
    invert: 0
    type: 0
    axis: 0
    joyNum: 0
  - serializedVersion: 3
    m_Name: Fire
    descriptiveName: 
    descriptiveNegativeName: 
    negativeButton: 
    positiveButton: x
    altNegativeButton: 
    altPositiveButton: left alt
    gravity: 1000
    dead: 0.001
    sensitivity: 1000
    snap: 0
    invert: 0
    type: 0
    axis: 0
    joyNum: 0
